Run a NetLogo BehaviorSpace experiment — run_experiment • logolink
…
  model_path |> run_experiment(setup_file = setup_file)
  ## Expected output:
  #> # A tibble: 110,110 × 10
  #>   run_number number_of_sheep number_of_wolves movement_cost
  #>         <dbl>           <dbl>            <dbl>         <dbl>
  #>  1          3             500                5           0.5
  #>  2          9             500                5           0.5
  #>  3          4             500                5           0.5
  #>  4          1             500                5           0.5
  #>  5          6             500                5           0.5
  #>  6          8             500                5           0.5
  #>  7          7             500                5           0.5
  #>  8          2             500                5           0.5
  #>  9          5             500                5           0.5
  #> 10          2             500                5           0.5
  #>  # 110,100 more rows
  #>  # 6 more variables: grass_regrowth_rate <dbl>,
  #>  # energy_gain_from_grass <dbl>, energy_gain_from_sheep <dbl>,
  #>  # step <dbl>, count_wolves <dbl>, count_sheep <dbl>
  #>  # Use `print(n = ...)` to see more rows
} # }

# Using an Experiment Defined in the NetLogo Model File -----

if (FALSE) { # \dontrun{
  model_path |>
    run_experiment(
      experiment = "Wolf Sheep Simple model analysis"
    )
  ## Expected output:
  #> # A tibble: 110 × 11
  #>    run_number energy_gain_from_grass number_of_wolves movement_cost
  #>         <dbl>                  <dbl>            <dbl>         <dbl>
  #>  1          4                      2                5           0.5
  #>  2          8                      2                5           0.5
  #>  3          2                      2                5           0.5
  #>  4          9                      2                5           0.5
  #>  5          1                      2                5           0.5
  #>  6          5                      2                5           0.5
  #>  7          7                      2                5           0.5
  #>  8          3                      2                5           0.5
  #>  9          6                      2                5           0.5
  #> 10         12                      2                6           0.5
  #> # 100 more rows
  #> # 7 more variables: energy_gain_from_sheep <dbl>,
  #> # number_of_sheep <dbl>, grass_regrowth_rate <dbl>, step <dbl>,
  #> # count_wolves <dbl>, count_sheep <dbl>,
  #> # sum_grass_amount_of_patches <dbl>
  #> # Use `print(n = ...)` to see more rows
…
